%% DO NOT EDIT this file manually; it was automatically
%% generated from the LilyPond Snippet Repository
%% (http://lsr.di.unimi.it).
%%
%% Make any changes in the LSR itself, or in
%% `Documentation/snippets/new/`, then run
%% `scripts/auxiliar/makelsr.pl`.
%%
%% This file is in the public domain.

\version "2.24.0"

\header {
  lsrtags = "pitches"

  texidoc = "
It is possible to change the default gap between the ambitus noteheads
and the line joining them.
"

  doctitle = "Changing the ambitus gap"
} % begin verbatim


\paper { tagline = ##f }

\layout {
  \context {
    \Voice
    \consists "Ambitus_engraver"
  }
}

\new Staff {
  \time 2/4
  % Default setting
  c'4 g''
}

\new Staff {
  \time 2/4
  \override AmbitusLine.gap = #0
  c'4 g''
}

\new Staff {
  \time 2/4
  \override AmbitusLine.gap = #1
  c'4 g''
}

\new Staff {
  \time 2/4
  \override AmbitusLine.gap = #1.5
  c'4 g''
}
